[gd_scene load_steps=3 format=2]

[ext_resource path="res://texture/tree_trunk.png" type="Texture" id=1]
[ext_resource path="res://texture/tree.tres" type="Texture" id=2]

[node name="oak_tree" type="Sprite"]
position = Vector2( 278, 72 )
texture = ExtResource( 1 )

[node name="leaves" type="CPUParticles2D" parent="."]
position = Vector2( -1.30368, -8.0205 )
amount = 10
lifetime = 5.0
emission_shape = 2
emission_rect_extents = Vector2( 27, 1 )
gravity = Vector2( 0, 5 )
scale_amount = 2.0
scale_amount_random = 1.0
color = Color( 0.839216, 0.541176, 0.360784, 1 )

[node name="top" type="Sprite" parent="."]
texture = ExtResource( 2 )
