[gd_scene load_steps=2 format=2]

[ext_resource path="res://texture/parallax_trees_1.png" type="Texture" id=1]

[node name="trees" type="ParallaxLayer"]
z_index = -90
motion_scale = Vector2( 0.3, 1 )

[node name="Sprite" type="Sprite" parent="."]
position = Vector2( 300, 52 )
texture = ExtResource( 1 )
offset = Vector2( 1024, 0 )
region_enabled = true
region_rect = Rect2( 0, 0, 3000, 128 )
